Adam_Syed_Final_Project
…
bootstrap <- bootstraps(worldcup_data, 
                             times = 30)

bootstrap_fits <-  workflow_lasso_lr |>
  fit_resamples(bootstrap,
                control = control_fit)

bootstrap_fits |>
  pull(.extracts) |>
  first() |>
  pull(.extracts) |>
  first()

# A tibble: 68 × 3
   term                                     estimate penalty
   <chr>                                       <dbl>   <dbl>
 1 (Intercept)                               -0.791      0.1
 2 possession team1                          -0.0116     0.1
 3 possession team2                           0          0.1
 4 possession in contest                      0          0.1
 5 total attempts team1                       0          0.1
 6 total attempts team2                       0          0.1
 7 assists team1                              1.11       0.1
 8 assists team2                              0          0.1
 9 attempts outside the penalty area  team1   0          0.1
10 attempts outside the penalty area  team2   0          0.1
# ℹ 58 more rows
…
bootstrap_std <- bootstrap_coefs |>
  summarize(std.error = sd(estimate),
            estimate = mean(estimate),
            .by = term)

bootstrap_std

# A tibble: 69 × 3
   term                                     std.error estimate
   <chr>                                        <dbl>    <dbl>
 1 (Intercept)                                0.324   -0.285  
 2 possession team1                           0.0121  -0.00258
 3 possession team2                           0        0      
 4 possession in contest                      0.00522 -0.00137
 5 total attempts team1                       0.0110   0.00202
 6 total attempts team2                       0        0      
 7 assists team1                              0.205    0.863  
 8 assists team2                              0.219   -0.492  
 9 attempts outside the penalty area  team1   0.0183   0.00334
10 attempts outside the penalty area  team2   0.0130  -0.00295
# ℹ 59 more rows
…
